<svg width="40" height="40" viewBox="0 0 40 40" fill="none" xmlns="http://www.w3.org/2000/svg">
<rect x="10" y="7" width="5" height="26" rx="2" fill="#6B7682"/>
<rect x="25" y="7" width="5" height="26" rx="2" fill="#6B7682"/>
</svg>
