<svg width="28" height="28" viewBox="0 0 28 28" fill="none" xmlns="http://www.w3.org/2000/svg">
<path d="M9.704 17H12.92V16.392H11.744V11.136H11.184C10.864 11.32 10.488 11.456 9.968 11.552V12.016H11.008V16.392H9.704V17ZM15.6615 17.104C16.7735 17.104 17.4855 16.088 17.4855 14.048C17.4855 12.016 16.7735 11.024 15.6615 11.024C14.5415 11.024 13.8295 12.008 13.8295 14.048C13.8295 16.088 14.5415 17.104 15.6615 17.104ZM15.6615 16.52C14.9895 16.52 14.5415 15.776 14.5415 14.048C14.5415 12.336 14.9895 11.616 15.6615 11.616C16.3255 11.616 16.7735 12.336 16.7735 14.048C16.7735 15.776 16.3255 16.52 15.6615 16.52Z" fill="#6B7682"/>
<path d="M4.05619 3.5V10.3556H10.9118V8.87322L6.58176 8.87141C8.20945 6.52149 10.925 4.98235 14 4.98235C18.9803 4.98235 23.0176 9.01969 23.0176 14C23.0176 18.9803 18.9803 23.0176 14 23.0176C9.0201 23.0176 4.98302 18.981 4.98235 14.0012L3.5 14C3.5 19.799 8.20101 24.5 14 24.5C19.799 24.5 24.5 19.799 24.5 14C24.5 8.20101 19.799 3.5 14 3.5C10.5284 3.5 7.45037 5.18475 5.53881 7.78125L5.53855 3.5H4.05619Z" fill="#6B7682"/>
</svg>
