<svg width="22" height="22" viewBox="0 0 22 22" fill="none" xmlns="http://www.w3.org/2000/svg">
<mask id="mask0" mask-type="alpha" maskUnits="userSpaceOnUse" x="3" y="3" width="16" height="16">
<path fill-rule="evenodd" clip-rule="evenodd" d="M10.9994 3.28564C15.2599 3.28564 18.7137 6.73945 18.7137 10.9999C18.7137 15.2604 15.2599 18.7142 10.9994 18.7142C6.73896 18.7142 3.28516 15.2604 3.28516 10.9999C3.28516 6.73945 6.73896 3.28564 10.9994 3.28564Z" fill="#6B7682"/>
</mask>
<g mask="url(#mask0)">
<path fill-rule="evenodd" clip-rule="evenodd" d="M13.499 9.21437C13.499 7.83365 12.3797 6.71436 10.9989 6.71436C9.61823 6.71436 8.49893 7.83365 8.49893 9.21437C8.49893 10.5951 9.61823 11.7144 10.9989 11.7144C12.3797 11.7144 13.499 10.5951 13.499 9.21437ZM16.9964 15.952C16.9243 14.0827 15.3861 12.5894 13.4991 12.5894H8.49904L8.36161 12.592C6.4923 12.6642 4.99902 14.2024 4.99902 16.0894V17.9644H16.9991V16.0894L16.9964 15.952Z" fill="#6B7682"/>
</g>
<path fill-rule="evenodd" clip-rule="evenodd" d="M10.9994 3.28564C15.2599 3.28564 18.7137 6.73945 18.7137 10.9999C18.7137 15.2604 15.2599 18.7142 10.9994 18.7142C6.73896 18.7142 3.28516 15.2604 3.28516 10.9999C3.28516 6.73945 6.73896 3.28564 10.9994 3.28564ZM10.9988 4.31422C7.30637 4.31422 4.31307 7.30751 4.31307 10.9999C4.31307 14.6923 7.30637 17.6856 10.9988 17.6856C14.6912 17.6856 17.6845 14.6923 17.6845 10.9999C17.6845 7.30751 14.6912 4.31422 10.9988 4.31422Z" fill="#6B7682"/>
</svg>
