<svg width="20" height="20" viewBox="0 0 20 20" fill="none" xmlns="http://www.w3.org/2000/svg">
<path fill-rule="evenodd" clip-rule="evenodd" d="M18 2H2V18H18V2ZM2 0C0.895431 0 0 0.895431 0 2V18C0 19.1046 0.895431 20 2 20H18C19.1046 20 20 19.1046 20 18V2C20 0.895431 19.1046 0 18 0H2Z" fill="#2C3238"/>
<rect x="9" y="5" width="2" height="10" fill="#2C3238"/>
<rect x="5" y="9" width="10" height="2" fill="#2C3238"/>
</svg>
